# Columns are correctly typed

    Code
      scenarios_modified
    Output
      # A tibble: 33 x 13
         Scenario_name                 IndividualId PopulationId ReadPopulationFromCSV
         <chr>                         <fct>        <fct>        <fct>                
       1 Sindrup (1992) - paroxetine ~ <NA>         <NA>         <NA>                 
       2 Sindrup (1992) - paroxetine ~ <NA>         <NA>         <NA>                 
       3 Massaroti (2005) - paroxetin~ <NA>         <NA>         <NA>                 
       4 Segura (2005) - paroxetine h~ <NA>         <NA>         <NA>                 
       5 Calvo (2004) - paroxetine hy~ <NA>         <NA>         <NA>                 
       6 Belle (2002) - paroxetine hy~ <NA>         <NA>         <NA>                 
       7 McClelland (1985) - paroxeti~ <NA>         <NA>         <NA>                 
       8 Schoedel (2012) - paroxetine~ <NA>         <NA>         <NA>                 
       9 Yasui-Furukori (2007) - paro~ <NA>         <NA>         <NA>                 
      10 Yasui-Furukori (2007) - paro~ <NA>         <NA>         <NA>                 
      # i 23 more rows
      # i 9 more variables: ModelParameterSheets <fct>, ApplicationProtocol <fct>,
      #   SimulationTime <chr>, SimulationTimeUnit <fct>, SteadyState <lgl>,
      #   SteadyStateTime <dbl>, SteadyStateTimeUnit <fct>, ModelFile <fct>,
      #   OutputPathsIds <chr>
